^C:\USERS\ONETH\APPDATA\LOCAL\TEMP\.NETFRAMEWORK,VERSION=V4.6.1.ASSEMBLYATTRIBUTES.CPP
C:\USERS\ONETH\SOURCE\REPOS\041_GAGEN_AUFGABE\041_GAGEN_AUFGABE\DEBUG\VC142.PDB
C:\USERS\ONETH\SOURCE\REPOS\041_GAGEN_AUFGABE\041_GAGEN_AUFGABE\DEBUG\.NETFRAMEWORK,VERSION=V4.6.1.ASSEMBLYATTRIBUTES.OBJ
C:\USERS\ONETH\SOURCE\REPOS\041_GAGEN_AUFGABE\041_GAGEN_AUFGABE\DEBUG\.NETFRAMEWORK,VERSION=V4.6.1.ASSEMBLYATTRIBUTES.ASM
^C:\USERS\ONETH\SOURCE\REPOS\041_GAGEN_AUFGABE\041_GAGEN_AUFGABE\041_GALGENMANN_AUFGABE.CPP
C:\USERS\ONETH\SOURCE\REPOS\041_GAGEN_AUFGABE\041_GAGEN_AUFGABE\DEBUG\VC142.PDB
C:\USERS\ONETH\SOURCE\REPOS\041_GAGEN_AUFGABE\041_GAGEN_AUFGABE\DEBUG\041_GALGENMANN_AUFGABE.OBJ
