^C:\USERS\ONETH\SOURCE\REPOS\041_GAGEN_AUFGABE\041_GAGEN_AUFGABE\DEBUG\.NETFRAMEWORK,VERSION=V4.6.1.ASSEMBLYATTRIBUTES.OBJ|C:\USERS\ONETH\SOURCE\REPOS\041_GAGEN_AUFGABE\041_GAGEN_AUFGABE\DEBUG\041_GALGENMANN_AUFGABE.OBJ|C:\USERS\ONETH\SOURCE\REPOS\041_GAGEN_AUFGABE\041_GAGEN_AUFGABE\DEBUG\APP.RES
C:\USERS\ONETH\SOURCE\REPOS\041_GAGEN_AUFGABE\DEBUG\041_GAGEN_AUFGABE.EXE
C:\USERS\ONETH\SOURCE\REPOS\041_GAGEN_AUFGABE\DEBUG\041_GAGEN_AUFGABE.PDB
