#Command: "C:\Program Files (x86)\Microsoft Visual Studio\2019\Community\VC\Tools\MSVC\14.23.28105\bin\HostX86\x86\link.exe" /ERRORREPORT:PROMPT @C:\Users\oneth\AppData\Local\Temp\tmp63644d8ff8124cefbcda50530afe2f8a.rsp /nologo /incremental:no /fullbuild
^C:\USERS\ONETH\SOURCE\REPOS\041_GAGEN_AUFGABE\041_GAGEN_AUFGABE\DEBUG\.NETFRAMEWORK,VERSION=V4.6.1.ASSEMBLYATTRIBUTES.OBJ|C:\USERS\ONETH\SOURCE\REPOS\041_GAGEN_AUFGABE\041_GAGEN_AUFGABE\DEBUG\041_GALGENMANN_AUFGABE.OBJ|C:\USERS\ONETH\SOURCE\REPOS\041_GAGEN_AUFGABE\041_GAGEN_AUFGABE\DEBUG\APP.RES
C:\USERS\ONETH\SOURCE\REPOS\041_GAGEN_AUFGABE\DEBUG\041_GAGEN_AUFGABE.PDB
