^C:\USERS\ONETH\SOURCE\REPOS\041_GAGEN_AUFGABE\041_GAGEN_AUFGABE\APP.RC
C:\USERS\ONETH\SOURCE\REPOS\041_GAGEN_AUFGABE\041_GAGEN_AUFGABE\RESOURCE.H
C:\USERS\ONETH\SOURCE\REPOS\041_GAGEN_AUFGABE\041_GAGEN_AUFGABE\APP.ICO
