^C:\USERS\ONETH\APPDATA\LOCAL\TEMP\.NETFRAMEWORK,VERSION=V4.6.1.ASSEMBLYATTRIBUTES.CPP
/c /Zi /clr /nologo /W3 /WX- /diagnostics:column /Od /D _DEBUG /D _UNICODE /D UNICODE /EHa /MDd /GS /fp:precise /Zc:wchar_t /Zc:forScope /Zc:inline /Fp"X64\DEBUG\041_GALGENMAENNCHEN_SPIEL.PCH" /Fa"X64\DEBUG\\" /Fo"X64\DEBUG\\" /Fd"X64\DEBUG\VC142.PDB" /FC C:\USERS\ONETH\APPDATA\LOCAL\TEMP\.NETFRAMEWORK,VERSION=V4.6.1.ASSEMBLYATTRIBUTES.CPP
^C:\USERS\ONETH\SOURCE\REPOS\041_GALGENMAENNCHEN_SPIEL\041_GALGENMAENNCHEN_SPIEL\041_GALGENMAENNCHEN_SPIEL_CMD.CPP
/c /AI"C:\PROGRAM FILES (X86)\REFERENCE ASSEMBLIES\MICROSOFT\FRAMEWORK\.NETFRAMEWORK\V4.6.1\\" /AI"C:\PROGRAM FILES (X86)\WINDOWS KITS\10\REFERENCES" /AI"C:\PROGRAM FILES (X86)\REFERENCE ASSEMBLIES\MICROSOFT\FRAMEWORK\.NETFRAMEWORK\V4.6.1\FACADES\\" /Zi /clr /nologo /W3 /WX- /diagnostics:column /Od /D _DEBUG /D _UNICODE /D UNICODE /EHa /MDd /GS /fp:precise /Zc:wchar_t /Zc:forScope /Zc:inline /Fo"X64\DEBUG\\" /Fd"X64\DEBUG\VC142.PDB" /TP /FU"C:\PROGRAM FILES (X86)\REFERENCE ASSEMBLIES\MICROSOFT\FRAMEWORK\.NETFRAMEWORK\V4.6.1\MSCORLIB.DLL" /FU"C:\PROGRAM FILES (X86)\REFERENCE ASSEMBLIES\MICROSOFT\FRAMEWORK\.NETFRAMEWORK\V4.6.1\SYSTEM.DATA.DLL" /FU"C:\PROGRAM FILES (X86)\REFERENCE ASSEMBLIES\MICROSOFT\FRAMEWORK\.NETFRAMEWORK\V4.6.1\SYSTEM.DLL" /FU"C:\PROGRAM FILES (X86)\REFERENCE ASSEMBLIES\MICROSOFT\FRAMEWORK\.NETFRAMEWORK\V4.6.1\SYSTEM.XML.DLL" /FC /clr:nostdlib  C:\USERS\ONETH\SOURCE\REPOS\041_GALGENMAENNCHEN_SPIEL\041_GALGENMAENNCHEN_SPIEL\041_GALGENMAENNCHEN_SPIEL_CMD.CPP
