#Command: "C:\Program Files (x86)\Microsoft Visual Studio\2019\Community\VC\Tools\MSVC\14.23.28105\bin\HostX86\x86\link.exe" /ERRORREPORT:PROMPT @C:\Users\oneth\AppData\Local\Temp\tmp84e314d596d34122831a01306ff7f00a.rsp /nologo /incremental:no /fullbuild
^C:\USERS\ONETH\SOURCE\REPOS\053_2_PALINDROME_PRUEFUNG\053_2_PALINDROME_PRUEFUNG\DEBUG\.NETFRAMEWORK,VERSION=V4.6.1.ASSEMBLYATTRIBUTES.OBJ|C:\USERS\ONETH\SOURCE\REPOS\053_2_PALINDROME_PRUEFUNG\053_2_PALINDROME_PRUEFUNG\DEBUG\053_2_PALINDROME_PRUEF.OBJ|C:\USERS\ONETH\SOURCE\REPOS\053_2_PALINDROME_PRUEFUNG\053_2_PALINDROME_PRUEFUNG\DEBUG\APP.RES
C:\USERS\ONETH\SOURCE\REPOS\053_2_PALINDROME_PRUEFUNG\DEBUG\053_2_PALINDROME_PRUEFUNG.PDB
